%YAML 1.1
%TAG !u! tag:unity3d.com,2011:
--- !u!1 &7079065819514586775
GameObject:
  m_ObjectHideFlags: 0
  m_CorrespondingSourceObject: {fileID: 0}
  m_PrefabInstance: {fileID: 0}
  m_PrefabAsset: {fileID: 0}
  serializedVersion: 6
  m_Component:
  - component: {fileID: 4142669737495510840}
  m_Layer: 0
  m_Name: somethig
  m_TagString: Untagged
  m_Icon: {fileID: 0}
  m_NavMeshLayer: 0
  m_StaticEditorFlags: 0
  m_IsActive: 1
--- !u!4 &4142669737495510840
Transform:
  m_ObjectHideFlags: 0
  m_CorrespondingSourceObject: {fileID: 0}
  m_PrefabInstance: {fileID: 0}
  m_PrefabAsset: {fileID: 0}
  m_GameObject: {fileID: 7079065819514586775}
  m_LocalRotation: {x: -0, y: -0, z: -0, w: 1}
  m_LocalPosition: {x: 3.3297627, y: -0.66718817, z: -4.4269114}
  m_LocalScale: {x: 1, y: 1, z: 1}
  m_Children:
  - {fileID: 3837144521447505079}
  - {fileID: 7647988876423214479}
  m_Father: {fileID: 0}
  m_RootOrder: 0
  m_LocalEulerAnglesHint: {x: 0, y: 0, z: 0}
--- !u!1001 &3841035021570848277
PrefabInstance:
  m_ObjectHideFlags: 0
  serializedVersion: 2
  m_Modification:
    m_TransformParent: {fileID: 4142669737495510840}
    m_Modifications:
    - target: {fileID: 1122794294653584, guid: f8ec7b4856b8eb747ab5935cec767b15, type: 3}
      propertyPath: m_Name
      value: paper Prefab (1)
      objectReference: {fileID: 0}
    - target: {fileID: 4045777154755234, guid: f8ec7b4856b8eb747ab5935cec767b15, type: 3}
      propertyPath: m_RootOrder
      value: 0
      objectReference: {fileID: 0}
    - target: {fileID: 4045777154755234, guid: f8ec7b4856b8eb747ab5935cec767b15, type: 3}
      propertyPath: m_LocalPosition.x
      value: -2.7758076
      objectReference: {fileID: 0}
    - target: {fileID: 4045777154755234, guid: f8ec7b4856b8eb747ab5935cec767b15, type: 3}
      propertyPath: m_LocalPosition.y
      value: 0.19896066
      objectReference: {fileID: 0}
    - target: {fileID: 4045777154755234, guid: f8ec7b4856b8eb747ab5935cec767b15, type: 3}
      propertyPath: m_LocalPosition.z
      value: 4.8306966
      objectReference: {fileID: 0}
    - target: {fileID: 4045777154755234, guid: f8ec7b4856b8eb747ab5935cec767b15, type: 3}
      propertyPath: m_LocalRotation.w
      value: 1
      objectReference: {fileID: 0}
    - target: {fileID: 4045777154755234, guid: f8ec7b4856b8eb747ab5935cec767b15, type: 3}
      propertyPath: m_LocalRotation.x
      value: -0
      objectReference: {fileID: 0}
    - target: {fileID: 4045777154755234, guid: f8ec7b4856b8eb747ab5935cec767b15, type: 3}
      propertyPath: m_LocalRotation.y
      value: -0
      objectReference: {fileID: 0}
    - target: {fileID: 4045777154755234, guid: f8ec7b4856b8eb747ab5935cec767b15, type: 3}
      propertyPath: m_LocalRotation.z
      value: -0
      objectReference: {fileID: 0}
    - target: {fileID: 4045777154755234, guid: f8ec7b4856b8eb747ab5935cec767b15, type: 3}
      propertyPath: m_LocalEulerAnglesHint.x
      value: 0
      objectReference: {fileID: 0}
    - target: {fileID: 4045777154755234, guid: f8ec7b4856b8eb747ab5935cec767b15, type: 3}
      propertyPath: m_LocalEulerAnglesHint.y
      value: 0
      objectReference: {fileID: 0}
    - target: {fileID: 4045777154755234, guid: f8ec7b4856b8eb747ab5935cec767b15, type: 3}
      propertyPath: m_LocalEulerAnglesHint.z
      value: 0
      objectReference: {fileID: 0}
    m_RemovedComponents: []
  m_SourcePrefab: {fileID: 100100000, guid: f8ec7b4856b8eb747ab5935cec767b15, type: 3}
--- !u!4 &3837144521447505079 stripped
Transform:
  m_CorrespondingSourceObject: {fileID: 4045777154755234, guid: f8ec7b4856b8eb747ab5935cec767b15, type: 3}
  m_PrefabInstance: {fileID: 3841035021570848277}
  m_PrefabAsset: {fileID: 0}
--- !u!1001 &7650844735036096301
PrefabInstance:
  m_ObjectHideFlags: 0
  serializedVersion: 2
  m_Modification:
    m_TransformParent: {fileID: 4142669737495510840}
    m_Modifications:
    - target: {fileID: 1122794294653584, guid: f8ec7b4856b8eb747ab5935cec767b15, type: 3}
      propertyPath: m_Name
      value: paper Prefab
      objectReference: {fileID: 0}
    - target: {fileID: 4045777154755234, guid: f8ec7b4856b8eb747ab5935cec767b15, type: 3}
      propertyPath: m_RootOrder
      value: 1
      objectReference: {fileID: 0}
    - target: {fileID: 4045777154755234, guid: f8ec7b4856b8eb747ab5935cec767b15, type: 3}
      propertyPath: m_LocalPosition.x
      value: -2.6757858
      objectReference: {fileID: 0}
    - target: {fileID: 4045777154755234, guid: f8ec7b4856b8eb747ab5935cec767b15, type: 3}
      propertyPath: m_LocalPosition.y
      value: 0.18453205
      objectReference: {fileID: 0}
    - target: {fileID: 4045777154755234, guid: f8ec7b4856b8eb747ab5935cec767b15, type: 3}
      propertyPath: m_LocalPosition.z
      value: 4.79714
      objectReference: {fileID: 0}
    - target: {fileID: 4045777154755234, guid: f8ec7b4856b8eb747ab5935cec767b15, type: 3}
      propertyPath: m_LocalRotation.w
      value: 1
      objectReference: {fileID: 0}
    - target: {fileID: 4045777154755234, guid: f8ec7b4856b8eb747ab5935cec767b15, type: 3}
      propertyPath: m_LocalRotation.x
      value: -0
      objectReference: {fileID: 0}
    - target: {fileID: 4045777154755234, guid: f8ec7b4856b8eb747ab5935cec767b15, type: 3}
      propertyPath: m_LocalRotation.y
      value: -0
      objectReference: {fileID: 0}
    - target: {fileID: 4045777154755234, guid: f8ec7b4856b8eb747ab5935cec767b15, type: 3}
      propertyPath: m_LocalRotation.z
      value: -0
      objectReference: {fileID: 0}
    - target: {fileID: 4045777154755234, guid: f8ec7b4856b8eb747ab5935cec767b15, type: 3}
      propertyPath: m_LocalEulerAnglesHint.x
      value: 0
      objectReference: {fileID: 0}
    - target: {fileID: 4045777154755234, guid: f8ec7b4856b8eb747ab5935cec767b15, type: 3}
      propertyPath: m_LocalEulerAnglesHint.y
      value: 0
      objectReference: {fileID: 0}
    - target: {fileID: 4045777154755234, guid: f8ec7b4856b8eb747ab5935cec767b15, type: 3}
      propertyPath: m_LocalEulerAnglesHint.z
      value: 0
      objectReference: {fileID: 0}
    m_RemovedComponents: []
  m_SourcePrefab: {fileID: 100100000, guid: f8ec7b4856b8eb747ab5935cec767b15, type: 3}
--- !u!4 &7647988876423214479 stripped
Transform:
  m_CorrespondingSourceObject: {fileID: 4045777154755234, guid: f8ec7b4856b8eb747ab5935cec767b15, type: 3}
  m_PrefabInstance: {fileID: 7650844735036096301}
  m_PrefabAsset: {fileID: 0}
