%YAML 1.1
%TAG !u! tag:unity3d.com,2011:
--- !u!1045 &1
EditorBuildSettings:
  m_ObjectHideFlags: 0
  serializedVersion: 2
  m_Scenes:
  - enabled: 0
    path: Assets/_Kotaro/CopyFromKobayashi/Scenes/Pre/Scene001.unity
    guid: 87286e9d27b67d847851ebdea62e1e75
  - enabled: 0
    path: Assets/_Kotaro/CopyFromKobayashi/Scenes/Pre/Scene003.unity
    guid: 04c0f5e080050db43bd930de20d64fb1
  - enabled: 0
    path: Assets/_Kotaro/CopyFromKobayashi/Scenes/Pre/Scene004.unity
    guid: 15dd589ad34f34a459127f2bc8ee0462
  - enabled: 1
    path: Assets/_Kotaro/scene/Tutorial.unity
    guid: 8fbf4b891490e458c99ad6814ce66145
  m_configObjects:
    Unity.XR.Oculus.Settings: {fileID: 11400000, guid: abf344acbdadd9d49bf919c7734a5a2b, type: 2}
    com.unity.xr.management.loader_settings: {fileID: 11400000, guid: 71e0aee925c7e8f4993c8be0fe37ed45, type: 2}
